﻿{
	"elements" : {
					"facilitator" : "During the first year of a producer’s participation in the Albert Heijn Beter voor add-on,  75% of their plots should meet the Albert Heijn Organic matter entry requirement. <br>To justify this, count the percentage of the plots that meet the criterion for the organic matter.",
					"showtext" : "",
					"showgrammar" : "",
					"showLF" : "",
					"showUE" : "",
					"showCU" : "",
					"showaudio" : "",
					"image":"", 
					"audio":"slide6", 
					"URLs":""
	},
	"ex" : {
		"0" : {
			"type" : "syncAudio",
			"activeElement" : "activity",
			"settings" : {
				"typeOfCheck" : {
					"type": "submit", 
					"checkButton":false,
					"cleanOnClick":"selection" 
				},
				"unit" : {
					"number":"1",
					"content":"Your World",
					"subtitle":"Reading"
				},
				"autoPlayAudio" : true,
				"hideTimebar" : false,
				"equalColumns": false,
                "fullWidth": true
			},
			"rubric" : {
				"number" : "1",
				"content" : ""
			},
			"activity": {
				"header" : [null,null,null],
				"main" : [null,[["syncText","text1"]],null],
				"footer" : [null,null,null],
				"timelineObject":[
					{
						"start": 0.5,
						"target": "text1",
						"text": "<img class=\"imgBorder\" src=\"../resources/images/slide6_1.png\">",
						"classText":"",
						"itemClassName":"imageOnTop"
					},
					{
						"start": 5,
						"target": "text1",
						"text": "<img class=\"imgBorder\" src=\"../resources/images/slide6_2.png\">",
						"classText":"",
						"itemClassName":"opacity_0 imageOnTop addFadeIn"
					},
					{
						"start": 8,
						"target": "text1",
						"text": "<img class=\"imgBorder\" src=\"../resources/images/slide6_3.png\">",
						"classText":"",
						"itemClassName":"opacity_0 imageOnTop addFadeIn"
					},					
					{
						"start": 10,
						"target": "text1",
						"text": "<img class=\"imgBorder\" src=\"../resources/images/slide6_4.png\">",
						"classText":"",
						"itemClassName":"opacity_0 imageOnTop addFadeIn"
					},
					{
						"start": 17,
						"target": "text1",
						"text": "<img class=\"imgBorder\" src=\"../resources/images/slide6_5.png\">",
						"classText":"",
						"itemClassName":"opacity_0 imageOnTop addFadeIn"
					}	
				]
			}
		}
	}
}